p8105_hw3_yl4923
…
instacart %>% 
  group_by(aisle, aisle_id) %>%
  summarize(n = n()) %>%
  arrange(desc(n)) %>%
  tbl_df()

## Warning: `tbl_df()` was deprecated in dplyr 1.0.0.
## Please use `tibble::as_tibble()` instead.
## This warning is displayed once every 8 hours.
## Call `lifecycle::last_warnings()` to see where this warning was generated.

## `summarise()` has grouped output by 'aisle'. You can override using the `.groups` argument.

## # A tibble: 134 x 3
##    aisle                         aisle_id      n
##    <chr>                            <int>  <int>
##  1 fresh vegetables                    83 150609
##  2 fresh fruits                        24 150473
##  3 packaged vegetables fruits         123  78493
##  4 yogurt                             120  55240
##  5 packaged cheese                     21  41699
##  6 water seltzer sparkling water      115  36617
##  7 milk                                84  32644
##  8 chips pretzels                     107  31269
##  9 soy lactosefree                     91  26240
## 10 bread                              112  23635
## # ... with 124 more rows
…
